{
    "allTabsLabel": {
        "message": "すべてのタブを表示…"
    },
    "closeTabButtonTooltip": {
        "message": "タブを閉じます"
    },
    "contextMenuCloseOtherTabs": {
        "message": "他のタブをすべて閉じる"
    },
    "contextMenuCloseTab": {
        "message": "タブを閉じる"
    },
    "contextMenuCloseTabsAfter": {
        "message": "下のタブをすべて閉じる"
    },
    "contextMenuDuplicateTab": {
        "message": "タブを複製"
    },
    "contextMenuMoveTab": {
        "message": "タブを移動"
    },
    "contextMenuMoveTabToEnd": {
        "message": "最後のタブへ移動"
    },
    "contextMenuMoveTabToNewWindow": {
        "message": "新しいウィンドウへ移動"
    },
    "contextMenuMoveTabToStart": {
        "message": "最初のタブへ移動"
    },
    "contextMenuMuteTab": {
        "message": "タブをミュート"
    },
    "contextMenuOpenInContextualTab": {
        "message": "コンテナーを開きなおす"
    },
    "contextMenuPinTab": {
        "message": "タブをピン留め"
    },
    "contextMenuReloadAllTabs": {
        "message": "すべてのタブを再読み込み"
    },
    "contextMenuReloadTab": {
        "message": "タブを再読み込み"
    },
    "contextMenuUndoCloseTab": {
        "message": "閉じたタブを元に戻す"
    },
    "contextMenuUnmuteTab": {
        "message": "タブのミュートを解除"
    },
    "contextMenuUnpinTab": {
        "message": "タブのピン留めを外す"
    },
    "extensionDescription": {
        "message": "Tab Center は、ユーザーのタブの使い方から生じるいくつかの問題 (特に「タブを開きすぎてしまう」状況) を解決し、将来の革新に向けてより自在な UI の基礎を提供しようとする試みです。この Firefox アドオンの初回版では、タブを水平ではなく垂直に配置してみました。これは素晴らしい VerticalTabs アドオンに強く触発され、そのアイデアを借用したものです。"
    },
    "newTabBtnLabel": {
        "message": "新しいタブ"
    },
    "newTabBtnTooltip": {
        "message": "新しいタブを開きます"
    },
    "optionsAdvancedTitle": {
        "message": "上級者設定"
    },
    "optionsCompactMode": {
        "message": "コンパクトモード"
    },
    "optionsCompactModeDynamic": {
        "message": "動的"
    },
    "optionsCompactModeExplanation": {
        "message": "コンパクトモードではタブの高さを減らし、より多くのタブを表示します。ダイナミック設定では一定のスペースが残っていないと動作しません。"
    },
    "optionsCompactModeOff": {
        "message": "無効"
    },
    "optionsCompactModeStrict": {
        "message": "常時"
    },
    "optionsCompactPins": {
        "message": "ピン留めタブをアイコン表示"
    },
    "optionsCustomCSS": {
        "message": "CSSを保存"
    },
    "optionsDarkTheme": {
        "message": "暗いテーマ"
    },
    "optionsSaveCustomCSS": {
        "message": "CSSを保存"
    },
    "optionsTitle": {
        "message": "設定"
    },
    "searchPlaceholder": {
        "message": "タブを探索"
    },
    "settingsBtnTooltip": {
        "message": "設定を変更します"
    },
    "contextMenuNoContainer": {
        "message": "コンテナーなし (&N)",
        "description": "Taken from Firefox: https://pontoon.mozilla.org/en-GB/firefox/all-resources/?string=153932 and https://pontoon.mozilla.org/en-GB/firefox/all-resources/?string=153933. Context menu item label."
    }
}
